* 9623952 - (4 minutes ago) config - aslepenkov (HEAD -> master)
*   e2bb118 - (28 minutes ago) Merge remote-tracking branch 'cleverpack/master' - aslepenkov (bb/master)
|\
| * 9ae8b4e - (7 hours ago) 2018-05-22 20:35:01.01 - aslepenkov (cleverpack/master)
| * 6f868ec - (10 hours ago) 2018-05-22 17:37:37.71 - aslepenkov
| * 030dbba - (11 hours ago) PERFEKT - aslepenkov
| * 346b609 - (15 hours ago) Tue 05/22/2018 12:45:34.74 - Alexey Slepenkov
| * dfac22a - (29 hours ago) 2018-05-21 22:42:32.84 - aslepenkov
| * 3abb48b - (2 days ago) fix mdb - aslepenkov
| * 7a5e850 - (2 days ago) fix cdn - aslepenkov
| * 6322dd3 - (2 days ago) 2018-05-21  5:11:56.50 - aslepenkov
| * 6b6025c - (2 days ago) locals js - aslepenkov
| * 1f6ded2 - (2 days ago) 1 timeout - aslepenkov
| * 3a16bea - (2 days ago) ++ - aslepenkov
| * a6f5c2c - (2 days ago) clear, radio - aslepenkov
| * 94047d5 - (2 days ago) draw - aslepenkov
| * 54555e4 - (2 days ago) norm. test - aslepenkov
| * 615c41a - (2 days ago) OK - aslepenkov
| * 0b9df5b - (2 days ago) test - aslepenkov
| * 47f1194 - (9 days ago) emit addd - aslepenkov
| * 4308601 - (4 weeks ago) 2018-04-25 13:23:58.57 - aslepenkov
| * e75477b - (4 weeks ago) Mon 04/23/2018 13:42:23.71 - Alexey Slepenkov
| * 692ddd0 - (4 weeks ago) index - Alexey Slepenkov
| |\
| | * 171d672 - (4 weeks ago) Mon 04/23/2018 11:11:22.38 - Alexey Slepenkov
| * | 5de6c1e - (4 weeks ago) Revert "Mon 04/23/2018 10:56:28.04" - Alexey Slepenkov
| * | 7d5efff - (4 weeks ago) Mon 04/23/2018 10:59:41.02 - Alexey Slepenkov
| |/
| * abce5e1 - (4 weeks ago) Mon 04/23/2018 10:56:28.04 - Alexey Slepenkov
| * 4b1379e - (4 weeks ago) 2018-04-23  1:21:49.53 - aslepenkov
| * 1f6c1ef - (2 months ago) start-script - aslepenkov
| * d35886c - (2 months ago) favicon - aslepenkov
| * 5981ade - (2 months ago) redis-remote - aslepenkov
*   19d9ed0 - (28 minutes ago) cl - aslepenkov
|\
| * afe140c - (1 year ago) 20.05.2017 10:11:16,78 - aslepenkov (cleverpack3/master)
| * d302625 - (1 year ago) 20.05.2017 10:07:43,45 - aslepenkov
| * 3f7d12c - (1 year ago) 20.05.2017 10:03:07,20 - aslepenkov
| * eec1216 - (1 year ago) intia - aslepenkov
*   13f4ecc - (31 minutes ago) 3 - aslepenkov
|\
| *   5c0b1b1 - (4 weeks ago) k - Alexey Slepenkov (cleverpack2/master)
| |\
| | * 814f974 - (1 year ago) 20.05.2017 10:12:47,83 - aslepenkov
| | * fafcc4a - (1 year ago) 20.05.2017 10:05:07,27 - aslepenkov
| * | c365370 - (1 year ago) 20.05.2017 10:05:07,27 - aslepenkov
| |/
| * e0a803e - (1 year, 2 months ago) secnd - aslepenkov
| * d0e9116 - (1 year, 2 months ago) add pckges - aslepenkov
| * 5c1b6f4 - (1 year, 2 months ago) secnd - aslepenkov
| * f035b29 - (1 year, 2 months ago) secnd - aslepenkov
| * beb6d75 - (1 year, 2 months ago) secnd - aslepenkov
| * 4050211 - (1 year, 2 months ago) girst - aslepenkov
*   0a89f02 - (33 minutes ago) merge cl-old - aslepenkov
|\
| * 74a30ef - (9 hours ago) 2018-05-22 18:15:50.88 - aslepenkov (cleverpack-old/master)
| * 0ee5cc9 - (10 hours ago) 2018-05-22 18:01:23.77 - aslepenkov
| * 4e2dd18 - (12 months ago) prototype 3 - aslepenkov
| * cf5fe2f - (12 months ago) https check - aslepenkov
| * 9398d37 - (12 months ago) prototype 3 - aslepenkov
| * b15afd8 - (1 year, 5 months ago) test - aslepenkov
| * 848917a - (1 year, 5 months ago) fix sctit err - aslepenkov
| * e4f15b0 - (1 year, 5 months ago) Working example - aslepenkov
| * 1886a2e - (1 year, 5 months ago) a - aslepenkov
*   f2deb7f - (44 minutes ago) Merge remote-tracking branch 'bb/master' - aslepenkov
|\
| * 0843a3d - (6 months ago) 2017-12-01 15:42:11.58 - aslepenkov
| * 7f76ce3 - (8 months ago) UPD roles ADD gitignore - aslepenkov
| * 5a92d23 - (8 months ago) 01.10.2017 14:07:43,92 - aslepenkov
| * 161da41 - (8 months ago) MEAN template. Mongo - OK, Express - OK, Login/Register features - OK - aslepenkov
| * 477e450 - (12 months ago) prototype 3 - aslepenkov
| * 85da90a - (1 year, 6 months ago) '+mongo' - aslepenkov
| * 99905e2 - (1 year, 6 months ago) working var - aslepenkov
| * bb1afb5 - (1 year, 6 months ago) fancy variant - aslepenkov
| * 66a5f15 - (1 year, 6 months ago) ready to create chat - aslepenkov
| * faabf28 - (1 year, 7 months ago) Initial yo angular generated - aslepenkov
* 7173d6d - (47 minutes ago) Initial dummy commit - aslepenkov